{
    "app-id" : "org.example.App",
    "runtime" : "org.gnome.Platform",
    "runtime-version" : "master",
    "sdk" : "org.gnome.Sdk",
    "command" : "tabs-widget",
    "finish-args" : [
        "--share=network",
        "--share=ipc",
        "--socket=x11",
        "--socket=wayland",
        "--device=dri"
    ],
    "cleanup" : [
        "/include",
        "/lib/pkgconfig",
        "/man",
        "/share/doc",
        "/share/gtk-doc",
        "/share/man",
        "/share/pkgconfig",
        "/share/vala",
        "*.la",
        "*.a"
    ],
    "modules" : [
        {
            "name" : "libsass",
            "buildsystem" : "meson",
            "builddir" : true,
            "config-opts": [
                "--libdir=/app/lib"
            ],
            "sources" : [
                {
                    "type" : "git",
                    "url" : "https://github.com/lazka/libsass.git",
                    "branch" : "meson"
                }
            ]
        },
        {
            "name" : "sassc",
            "buildsystem" : "meson",
            "builddir" : true,
            "config-opts": [
                "--libdir=/app/lib"
            ],
            "sources" : [
                {
                    "type" : "git",
                    "url" : "https://github.com/lazka/sassc.git",
                    "branch" : "meson"
                }
            ]
        },
        {
            "name" : "elementary-stylesheet",
            "buildsystem" : "meson",
            "sources" : [
                {
                    "type" : "git",
                    "url" : "https://github.com/elementary/stylesheet.git"
                }
            ]
        },
        {
            "name" : "libhandy",
            "buildsystem" : "meson",
            "config-opts" : [
                "-Dtests=false",
                "-Dexamples=false",
                "-Dglade_catalog=disabled"
            ],
            "sources" : [
                {
                    "type" : "git",
                    "url" : "https://gitlab.gnome.org/exalm/libhandy.git",
                    "branch" : "tabs"
                }
            ]
        },
        {
            "name" : "tabs-widget",
            "builddir" : true,
            "buildsystem" : "meson",
            "sources" : [
                {
                    "type" : "git",
                    "url" : "file:///home/exalm/Projects/tabs-widget"
                }
            ]
        }
    ]
}
